…
unnest_longer()

repos <- repos %>% unnest_longer(repo)
repos

# A tibble: 176 × 1
   repo             
   <list>           
 1 <named list [68]>
 2 <named list [68]>
 3 <named list [68]>
 4 <named list [68]>
 5 <named list [68]>
 6 <named list [68]>
 7 <named list [68]>
 8 <named list [68]>
 9 <named list [68]>
10 <named list [68]>
# … with 166 more rows

hoist()

repos %>% hoist(
    repo,
    login = c("owner", "login"), #<===
    name = "name",
    homepage = "homepage",
    watchers = "watchers_count"
)

# A tibble: 176 × 5
   login       name        homepage watchers repo             
   <chr>       <chr>       <chr>       <int> <list>           
 1 gaborcsardi after        <NA>           5 <named list [65]>
 2 gaborcsardi argufy       <NA>          19 <named list [65]>
 3 gaborcsardi ask          <NA>           5 <named list [65]>
 4 gaborcsardi baseimports  <NA>           0 <named list [65]>
 5 gaborcsardi citest       <NA>           0 <named list [65]>
 6 gaborcsardi clisymbols  ""             18 <named list [65]>
 7 gaborcsardi cmaker       <NA>           0 <named list [65]>
 8 gaborcsardi cmark        <NA>           0 <named list [65]>
 9 gaborcsardi conditions   <NA>           0 <named list [65]>
10 gaborcsardi crayon       <NA>          52 <named list [65]>
# … with 166 more rows

Game of Throne Characters

Insert into tibble

Inspect

# A tibble: 30 × 1
   char             
   <list>           
 1 <named list [18]>
 2 <named list [18]>
 3 <named list [18]>
 4 <named list [18]>
 5 <named list [18]>
 6 <named list [18]>
 7 <named list [18]>
 8 <named list [18]>
 9 <named list [18]>
10 <named list [18]>
# … with 20 more rows

unnest_wider()

# A tibble: 30 × 18
   url           id name  gender culture born  died  alive titles aliases father
   <chr>      <int> <chr> <chr>  <chr>   <chr> <chr> <lgl> <list> <list>  <chr> 
 1 https://w…  1022 Theo… Male   "Ironb… "In … ""    TRUE  <chr>  <chr>   ""    
 2 https://w…  1052 Tyri… Male   ""      "In … ""    TRUE  <chr>  <chr>   ""    
 3 https://w…  1074 Vict… Male   "Ironb… "In … ""    TRUE  <chr>  <chr>   ""    
 4 https://w…  1109 Will  Male   ""      ""    "In … FALSE <chr>  <chr>   ""    
 5 https://w…  1166 Areo… Male   "Norvo… "In … ""    TRUE  <chr>  <chr>   ""    
 6 https://w…  1267 Chett Male   ""      "At … "In … FALSE <chr>  <chr>   ""    
 7 https://w…  1295 Cres… Male   ""      "In … "In … FALSE <chr>  <chr>   ""    
 8 https://w…   130 Aria… Female "Dorni… "In … ""    TRUE  <chr>  <chr>   ""    
 9 https://w…  1303 Daen… Female "Valyr… "In … ""    TRUE  <chr>  <chr>   ""    
10 https://w…  1319 Davo… Male   "Weste… "In … ""    TRUE  <chr>  <chr>   ""    
# … with 20 more rows, and 7 more variables: mother <chr>, spouse <chr>,
#   allegiances <list>, books <list>, povBooks <list>, tvSeries <list>,
#   playedBy <list>

When the tibble was unnested, there are a collection of list-columns. To see which columns are of the class list, you can use dplyr’s select_if function.

chars2 %>% select_if(is.list)

# A tibble: 30 × 7
   titles    aliases    allegiances books     povBooks  tvSeries  playedBy 
   <list>    <list>     <list>      <list>    <list>    <list>    <list>   
 1 <chr [3]> <chr [4]>  <chr [1]>   <chr [3]> <chr [2]> <chr [6]> <chr [1]>
 2 <chr [2]> <chr [11]> <chr [1]>   <chr [2]> <chr [4]> <chr [6]> <chr [1]>
 3 <chr [2]> <chr [1]>  <chr [1]>   <chr [3]> <chr [2]> <chr [1]> <chr [1]>
 4 <chr [1]> <chr [1]>  <NULL>      <chr [1]> <chr [1]> <chr [1]> <chr [1]>
 5 <chr [1]> <chr [1]>  <chr [1]>   <chr [3]> <chr [2]> <chr [2]> <chr [1]>
 6 <chr [1]> <chr [1]>  <NULL>      <chr [2]> <chr [1]> <chr [1]> <chr [1]>
 7 <chr [1]> <chr [1]>  <NULL>      <chr [2]> <chr [1]> <chr [1]> <chr [1]>
 8 <chr [1]> <chr [1]>  <chr [1]>   <chr [4]> <chr [1]> <chr [1]> <chr [1]>
 9 <chr [5]> <chr [11]> <chr [1]>   <chr [1]> <chr [4]> <chr [6]> <chr [1]>
10 <chr [4]> <chr [5]>  <chr [2]>   <chr [1]> <chr [3]> <chr [5]> <chr [1]>
# … with 20 more rows

Build table

# A tibble: 180 × 3
   name             media    value            
   <chr>            <chr>    <chr>            
 1 Theon Greyjoy    books    A Game of Thrones
 2 Theon Greyjoy    books    A Storm of Swords
 3 Theon Greyjoy    books    A Feast for Crows
 4 Theon Greyjoy    tvSeries Season 1         
 5 Theon Greyjoy    tvSeries Season 2         
 6 Theon Greyjoy    tvSeries Season 3         
 7 Theon Greyjoy    tvSeries Season 4         
 8 Theon Greyjoy    tvSeries Season 5         
 9 Theon Greyjoy    tvSeries Season 6         
10 Tyrion Lannister books    A Feast for Crows
# … with 170 more rows
Sharla Gelfand’s Discography

Insert into tibble

discs <- tibble(disc = discog) %>%
    unnest_wider(disc) %>%
    mutate(date_added = as.POSIXct(strptime(date_added, "%Y-%m-%dT%H:%M:%S")))

Inspect

Examine data.

discs

# A tibble: 155 × 5
   instance_id date_added          basic_information       id rating
         <int> <dttm>              <list>               <int>  <int>
 1   354823933 2019-02-16 17:48:59 <named list [11]>  7496378      0
 2   354092601 2019-02-13 14:13:11 <named list [11]>  4490852      0
 3   354091476 2019-02-13 14:07:23 <named list [11]>  9827276      0
 4   351244906 2019-02-02 11:39:58 <named list [11]>  9769203      0
 5   351244801 2019-02-02 11:39:37 <named list [11]>  7237138      0
 6   351052065 2019-02-01 20:40:53 <named list [11]> 13117042      0
 7   350315345 2019-01-29 15:48:37 <named list [11]>  7113575      0
 8   350315103 2019-01-29 15:47:22 <named list [11]> 10540713      0
 9   350314507 2019-01-29 15:44:08 <named list [11]> 11260950      0
10   350314047 2019-01-29 15:41:35 <named list [11]> 11726853      0
# … with 145 more rows
The list-column “basic_information” needs to be unnested so the disc information can be viewed.

discs |> unnest_wider(basic_information)

Error in `unpack()`:
! Names must be unique.
x These names are duplicated:
  * "id" at locations 7 and 14.
ℹ Use argument `names_repair` to specify repair strategy.

Fix duplicate names

discs %>% unnest_wider(basic_information, names_repair = "unique")

# A tibble: 155 × 15
   instance_id date_added          labels  year master_url  artists id...7 thumb
         <int> <dttm>              <list> <int> <chr>       <list>   <int> <chr>
 1   354823933 2019-02-16 17:48:59 <list>  2015 <NA>        <list>  7.50e6 "htt…
 2   354092601 2019-02-13 14:13:11 <list>  2013 https://ap… <list>  4.49e6 "htt…
 3   354091476 2019-02-13 14:07:23 <list>  2017 https://ap… <list>  9.83e6 "htt…
 4   351244906 2019-02-02 11:39:58 <list>  2017 https://ap… <list>  9.77e6 "htt…
 5   351244801 2019-02-02 11:39:37 <list>  2015 https://ap… <list>  7.24e6 "htt…
 6   351052065 2019-02-01 20:40:53 <list>  2019 https://ap… <list>  1.31e7 "htt…
 7   350315345 2019-01-29 15:48:37 <list>  2014 https://ap… <list>  7.11e6 "htt…
 8   350315103 2019-01-29 15:47:22 <list>  2015 https://ap… <list>  1.05e7 "htt…
 9   350314507 2019-01-29 15:44:08 <list>  2017 https://ap… <list>  1.13e7 ""   
10   350314047 2019-01-29 15:41:35 <list>  2017 <NA>        <list>  1.17e7 "htt…
# … with 145 more rows, and 7 more variables: title <chr>, formats <list>,
#   cover_image <chr>, resource_url <chr>, master_id <int>, id...14 <int>,
#   rating <int>

drop id column

basic-information repeats the id column so drop it.

discs %>%
    select(!id) %>%
    unnest_wider(basic_information)

# A tibble: 155 × 14
   instance_id date_added          labels  year master_url  artists     id thumb
         <int> <dttm>              <list> <int> <chr>       <list>   <int> <chr>
 1   354823933 2019-02-16 17:48:59 <list>  2015 <NA>        <list>  7.50e6 "htt…
 2   354092601 2019-02-13 14:13:11 <list>  2013 https://ap… <list>  4.49e6 "htt…
 3   354091476 2019-02-13 14:07:23 <list>  2017 https://ap… <list>  9.83e6 "htt…
 4   351244906 2019-02-02 11:39:58 <list>  2017 https://ap… <list>  9.77e6 "htt…
 5   351244801 2019-02-02 11:39:37 <list>  2015 https://ap… <list>  7.24e6 "htt…
 6   351052065 2019-02-01 20:40:53 <list>  2019 https://ap… <list>  1.31e7 "htt…
 7   350315345 2019-01-29 15:48:37 <list>  2014 https://ap… <list>  7.11e6 "htt…
 8   350315103 2019-01-29 15:47:22 <list>  2015 https://ap… <list>  1.05e7 "htt…
 9   350314507 2019-01-29 15:44:08 <list>  2017 https://ap… <list>  1.13e7 ""   
10   350314047 2019-01-29 15:41:35 <list>  2017 <NA>        <list>  1.17e7 "htt…
# … with 145 more rows, and 6 more variables: title <chr>, formats <list>,
#   cover_image <chr>, resource_url <chr>, master_id <int>, rating <int>

hoist() alternative

discs %>%
    hoist(
        basic_information,
        title = "title",
        year = "year",
        label = list("labels", 1, "name"),
        artist = list("artists", 1, "name")
    )

# A tibble: 155 × 9
   instance_id date_added          title      year label artist basic_informati…
         <int> <dttm>              <chr>     <int> <chr> <chr>  <list>          
 1   354823933 2019-02-16 17:48:59 Demo       2015 Tobi… Mollot <named list [9]>
 2   354092601 2019-02-13 14:13:11 Observan…  2013 La V… Una B… <named list [9]>
 3   354091476 2019-02-13 14:07:23 I          2017 La V… S.H.I… <named list [9]>
 4   351244906 2019-02-02 11:39:58 Oído Abs…  2017 La V… Rata … <named list [9]>
 5   351244801 2019-02-02 11:39:37 A Cat's …  2015 Kato… Ivy (… <named list [9]>
 6   351052065 2019-02-01 20:40:53 Tashme     2019 High… Tashme <named list [9]>
 7   350315345 2019-01-29 15:48:37 Demo       2014 Mind… Desgr… <named list [9]>
 8   350315103 2019-01-29 15:47:22 Let The …  2015 Not … Phant… <named list [9]>
 9   350314507 2019-01-29 15:44:08 Sub Space  2017 Not … Sub S… <named list [9]>
10   350314047 2019-01-29 15:41:35 Demo       2017 Pres… Small… <named list [9]>
# … with 145 more rows, and 2 more variables: id <int>, rating <int>

Better alternative

A better alternative would be to create separate tables for artist and label:

# artist
discs %>%
    hoist(basic_information, artist = "artists") %>%
    select(disc_id = id, artist) %>%
    unnest_longer(artist) %>%
    unnest_wider(artist)

# A tibble: 167 × 8
    disc_id join  name                    anv   tracks role  resource_url     id
      <int> <chr> <chr>                   <chr> <chr>  <chr> <chr>         <int>
 1  7496378 ""    Mollot                  ""    ""     ""    https://api… 4.62e6
 2  4490852 ""    Una Bèstia Incontrolab… ""    ""     ""    https://api… 3.19e6
 3  9827276 ""    S.H.I.T. (3)            ""    ""     ""    https://api… 2.77e6
 4  9769203 ""    Rata Negra              ""    ""     ""    https://api… 4.28e6
 5  7237138 ""    Ivy (18)                ""    ""     ""    https://api… 3.60e6
 6 13117042 ""    Tashme                  ""    ""     ""    https://api… 5.21e6
 7  7113575 ""    Desgraciados            ""    ""     ""    https://api… 4.45e6
 8 10540713 ""    Phantom Head            ""    ""     ""    https://api… 4.27e6
 9 11260950 ""    Sub Space (2)           ""    ""     ""    https://api… 5.69e6
10 11726853 ""    Small Man (2)           ""    ""     ""    https://api… 6.37e6
# … with 157 more rows

#discs
discs %>%
    hoist(basic_information, format = "formats") %>%
    select(disc_id = id, format) %>%
    unnest_longer(format) %>%
    unnest_wider(format) %>%
    unnest_longer(descriptions)

# A tibble: 281 × 5
    disc_id descriptions text  name     qty  
      <int> <chr>        <chr> <chr>    <chr>
 1  7496378 "Numbered"   Black Cassette 1    
 2  4490852 "LP"         <NA>  Vinyl    1    
 3  9827276 "7\""        <NA>  Vinyl    1    
 4  9827276 "45 RPM"     <NA>  Vinyl    1    
 5  9827276 "EP"         <NA>  Vinyl    1    
 6  9769203 "LP"         <NA>  Vinyl    1    
 7  9769203 "Album"      <NA>  Vinyl    1    
 8  7237138 "7\""        <NA>  Vinyl    1    
 9  7237138 "45 RPM"     <NA>  Vinyl    1    
10 13117042 "7\""        <NA>  Vinyl    1    
# … with 271 more rows
…
